{
    "Packages": [
      {
        "Name": "webserver",
        "Version": "1.0.0.1225"
      },
      {
        "Name": "videoclient",
        "Version": "1.0.0.1225"
      },
      {
        "Name": "controlclient",
        "Version": "1.0.0.1225"
      }
    ]
}